/Users/nikita/Documents/java stuff/CallGC/src/main/java/me/a8/callgc/cgc.java
/Users/nikita/Documents/java stuff/CallGC/src/main/java/me/a8/callgc/Metrics.java
/Users/nikita/Documents/java stuff/CallGC/src/main/java/me/a8/callgc/CallGC.java
